<svg width="1600" height="1200" xmlns="http://www.w3.org/2000/svg">
 <!-- Created with Method Draw - http://github.com/duopixel/Method-Draw/ -->

 <g>
  <title>background</title>
  <rect x="-1" y="-1" width="2463.532758" height="1848.149569" id="canvas_background" fill="#fff"/>
  <g id="canvasGrid" display="none">
   <rect id="svg_9" width="100%" height="100%" x="0" y="0" stroke-width="0" fill="url(#gridpattern)"/>
  </g>
 </g>
 <g>
  <title>Layer 1</title>
  <line fill="none" stroke-width="3" x1="0.71446" y1="762.075867" x2="1597.856955" y2="762.075831" id="svg_1" stroke-linejoin="undefined" stroke-linecap="undefined" stroke="#000"/>
  <path fill="none" stroke="#000" stroke-width="3" stroke-opacity="null" fill-opacity="null" d="m287.24039,1042.968535c0,0 4.365213,-19.911506 0,-26.656458c-4.370355,-6.744952 -6.113355,-11.237804 -15.722993,-14.454278s-6.108213,-2.575448 -13.095639,-2.246426c-6.987426,0.323349 -12.812851,4.492853 -12.812851,6.739279c0,0 -4.365213,0.323349 -6.108213,2.252099c-1.748142,1.92875 -4.658284,10.914455 -4.658284,13.166554s1.455071,17.347403 2.910142,20.558204l-1.732717,0.641026c-1.455071,18.623782 5.820284,20.875881 5.820284,20.875881c2.617071,17.347403 5.239284,9.961426 5.239284,14.454278s-2.622213,2.893125 -2.622213,2.893125s-2.324,7.062628 -8.144284,9.632404c-5.820284,2.564103 -38.130058,16.371683 -40.757413,19.264807c-2.627354,2.898798 -2.329142,16.383028 -2.329142,16.383028l138.550524,0c0,0 0.303354,-13.484231 -2.324,-16.383028c-2.632496,-2.898798 -34.94227,-16.700705 -40.762554,-19.264807c-5.820284,-2.569776 -8.144284,-9.632404 -8.144284,-9.632404s-2.622213,1.599728 -2.622213,-2.893125s2.622213,2.893125 5.244426,-14.454278c0,0 7.270213,-2.252099 5.820284,-20.875881l-1.748142,0l-0.000002,0z" id="svg_2"/>
  <path fill="none" stroke-width="2" stroke-opacity="null" fill-opacity="null" d="m224.38976,872.010899l38.571425,-90.496562l38.571425,90.496562l-19.285714,0l0,90.932015l-38.571422,0l0,-90.932015l-19.285714,0z" id="svg_3" stroke="#000" opacity="0.36"/>
  <text fill="#000000" stroke="#000" stroke-width="0" stroke-opacity="null" fill-opacity="null" x="303.571538" y="907.790098" id="svg_4" font-size="24" font-family="Helvetica, Arial, sans-serif" text-anchor="start" xml:space="preserve">GET example.com/admin/</text>
  <rect fill="none" stroke-width="2" stroke-opacity="null" fill-opacity="null" x="172.142993" y="669.218722" width="181.428529" height="62.85713" id="svg_6" stroke="#000"/>
  <text fill="#000000" stroke="#000" stroke-width="0" stroke-opacity="null" fill-opacity="null" x="200.714417" y="707.790142" id="svg_5" font-size="24" font-family="Helvetica, Arial, sans-serif" text-anchor="start" xml:space="preserve">nginx-proxy</text>
  <text fill="#000000" stroke="#000" stroke-width="0" stroke-opacity="null" fill-opacity="null" x="303.571538" y="952.075802" id="svg_7" font-size="24" font-family="Helvetica, Arial, sans-serif" text-anchor="start" xml:space="preserve">GET example.com/subpage1</text>
  <text fill="#000000" stroke="#000" stroke-width="0" stroke-opacity="null" fill-opacity="null" x="319.285823" y="589.218739" id="svg_8" font-size="20" font-family="Helvetica, Arial, sans-serif" text-anchor="start" xml:space="preserve">matches example.com with app1</text>
  <path fill="none" stroke-width="2" stroke-opacity="null" fill-opacity="null" d="m224.389755,557.725249l38.57143,-90.49656l38.57142,90.49656l-19.28571,0l0,90.93202l-38.57142,0l0,-90.93202l-19.28572,0z" id="svg_12" stroke="#000" opacity="0.36"/>
  <rect fill="none" stroke-width="2" stroke-opacity="null" fill-opacity="null" x="172.142993" y="386.361639" width="181.428529" height="62.85713" id="svg_14" stroke="#000"/>
  <text fill="#000000" stroke="#000" stroke-width="0" stroke-opacity="null" fill-opacity="null" x="193.571562" y="424.933058" id="svg_13" font-size="24" font-family="Helvetica, Arial, sans-serif" text-anchor="start" xml:space="preserve">nginx of app1</text>
  <text fill="#000000" stroke="#000" stroke-width="0" stroke-opacity="null" fill-opacity="null" x="373.571526" y="424.933059" id="svg_15" font-size="20" font-family="Helvetica, Arial, sans-serif" text-anchor="start" xml:space="preserve">passes request through to Django</text>
  <path fill="none" stroke-width="2" stroke-opacity="null" fill-opacity="null" d="m410.104002,286.296733l38.57143,-90.49656l38.57142,90.49656l-19.28571,0l0,90.93202l-38.57142,0l0,-90.93202l-19.28572,0z" id="svg_16" stroke="#000" opacity="0.36" transform="rotate(45 448.6754150390626,286.5145874023437) "/>
  <path fill="none" stroke="#000" stroke-width="2" stroke-opacity="null" fill-opacity="null" d="m612.096169,259.623571c-3.04409,-3.887319 -7.777781,-4.330612 -8.916039,-9.863705c-0.892168,-3.009552 -9.302829,-7.045957 -4.324996,-1.644224c3.843768,3.25504 8.410403,15.261169 -1.04608,11.467821c-7.192362,-2.464471 -7.500776,-10.07453 -9.428671,-15.771912c-6.269381,-4.061097 1.620904,-12.64799 -5.129437,-17.851328c-5.729127,-5.431664 -1.739149,-15.604366 -9.925594,-19.455715c-4.109051,-1.557094 -5.887638,9.193925 -6.579491,1.328851c-2.251171,-7.954732 -10.201708,3.866867 -15.503348,2.613592c-4.278119,-0.347236 7.156185,-3.124079 1.699674,-3.871353c-3.208011,1.63964 -6.176196,4.474676 -6.683729,-0.218149c-3.859046,-2.139862 -11.951547,-5.557135 -11.741328,-8.956509c3.351187,-0.982899 14.664411,1.861173 12.703874,-2.090591c-3.364162,-1.192013 -3.975279,-4.450457 0.145156,-2.263611c8.120228,0.237829 17.639444,-2.788496 24.395991,2.999685c3.524238,2.024597 6.989393,9.285806 8.87609,2.229269c6.081826,-6.848747 18.353967,-7.428859 22.103133,-16.29627c0.907251,-4.290166 -2.786393,-6.73783 -5.924258,-7.606832c-0.610474,-1.409902 -1.649695,-7.39582 -4.244497,-4.375136c0.118267,-2.643812 2.552325,-8.966101 -2.839202,-6.167221c-0.54685,-5.631157 4.609081,-11.249195 -2.211522,-15.349873c6.39054,1.106841 5.130354,-5.695301 3.738434,-6.774096c3.788256,-0.502229 8.233953,-3.685023 6.14524,-7.627963c4.113945,6.973121 4.256593,-8.459686 7.643583,-1.807682c6.233773,0.954169 -1.936603,-5.19987 3.796938,-3.826268c3.273917,0.104591 2.546793,-3.349228 5.487894,-0.742513c3.892499,-1.98297 -2.983984,-7.975828 3.300869,-3.81192c2.112742,1.713676 8.839117,6.202046 7.632251,0.279245c5.972014,5.947842 10.671678,-5.524534 15.63419,-7.900351c1.968392,-2.198675 6.248829,-4.525555 2.301145,-0.328525c-2.620749,5.34992 -11.512069,11.137398 -9.120031,16.45332c-2.165172,1.840396 4.368559,4.153455 -0.832563,3.456707c-3.081294,3.105428 4.131014,8.915492 4.706591,13.802956c-1.65206,3.34878 -7.942714,7.150534 -10.487442,7.030375c0.930073,-4.311557 -1.086197,-9.931184 -6.975353,-7.49411c3.298989,5.635795 7.759173,11.019757 10.553638,17.148583c2.731387,6.024928 7.159863,12.982501 12.986136,5.228413c3.7135,-4.94213 14.322048,-4.870587 11.407969,3.155451c-1.489687,7.881335 2.498657,18.283111 -5.164855,23.71205c-4.623053,8.317393 -9.748328,-3.092585 -6.116254,-7.40908c-0.925489,-1.233517 -1.641455,-2.104265 1.066763,-3.790401c-0.559204,-1.26478 7.793796,-6.023216 3.583917,-8.943066c-4.788049,5.069185 -11.794073,10.936788 -9.847018,18.472063c1.580248,5.049545 -11.45288,13.706529 -10.410678,5.32634c0.233447,-3.256825 5.213713,-9.568917 4.067321,-10.382106c-3.636046,6.369749 -8.808498,12.489254 -16.6246,14.380441c-6.501463,0.359715 -9.907192,5.247168 -6.819771,10.66985c0.590033,7.684183 -3.754397,14.638751 -4.75459,22.120388c1.859239,7.935259 13.178801,9.538775 14.715265,17.633346c2.64012,5.436317 -3.963858,4.632916 -7.040732,3.111763l0.000016,0.000005l0.000001,-0.000004zm-16.097375,-23.673438c-0.952979,-3.586978 -2.914138,9.324379 -0.496654,2.471554l0.361902,-1.210704l0.134751,-1.260855l0,0.000005l0.000001,0z" id="svg_17"/>
  <path fill="none" stroke-width="2" stroke-opacity="null" fill-opacity="null" d="m747.246791,193.439615l38.57143,-90.49656l38.57142,90.49656l-19.28571,0l0,90.93202l-38.57142,0l0,-90.93202l-19.28572,0z" id="svg_18" stroke="#000" opacity="0.36" transform="rotate(90 785.8182983398438,193.65728759765634) "/>
  <text fill="#000000" stroke="#000" stroke-width="0" stroke-opacity="null" fill-opacity="null" x="566.428628" y="297.790229" id="svg_19" font-size="20" font-family="Helvetica, Arial, sans-serif" text-anchor="start" xml:space="preserve">gunicorn</text>
  <rect fill="none" stroke-width="2" stroke-opacity="null" fill-opacity="null" x="897.857123" y="160.6474" width="205.714248" height="62.85713" id="svg_20" stroke="#000"/>
  <text fill="#000000" stroke="#000" stroke-width="0" stroke-opacity="null" fill-opacity="null" x="919.285695" y="199.21882" id="svg_21" font-size="24" font-family="Helvetica, Arial, sans-serif" text-anchor="start" xml:space="preserve">Django of app1</text>
  <text fill="#000000" stroke-width="0" stroke-opacity="null" fill-opacity="null" x="814.091115" y="261.57107" id="svg_22" font-size="20" font-family="Helvetica, Arial, sans-serif" text-anchor="start" xml:space="preserve" transform="matrix(1,0,0,1.0624512434005737,0,-16.098759587854147) " stroke="#000">tries to match everything after example.com</text>
  <text fill="#000000" stroke-width="0" stroke-opacity="null" fill-opacity="null" x="814.091115" y="288.463054" id="svg_23" font-size="20" font-family="Helvetica, Arial, sans-serif" text-anchor="start" xml:space="preserve" transform="matrix(1,0,0,1.0624512434005737,0,-16.098759587854147) " stroke="#000">with any entry in the urls.py</text>
  <text fill="#000000" stroke-width="0" stroke-opacity="null" fill-opacity="null" x="814.091115" y="315.355039" id="svg_24" font-size="20" font-family="Helvetica, Arial, sans-serif" text-anchor="start" xml:space="preserve" transform="matrix(1,0,0,1.0624512434005737,0,-16.098759587854147) " stroke="#000">and finds the pattern path('admin/', admin.site.urls)</text>
  <text fill="#000000" stroke-width="0" stroke-opacity="null" fill-opacity="null" x="814.091115" y="342.247024" id="svg_25" font-size="20" font-family="Helvetica, Arial, sans-serif" text-anchor="start" xml:space="preserve" transform="matrix(1,0,0,1.0624512434005737,0,-16.098759587854147) " stroke="#000">which is mapped to</text>
  <path fill="none" stroke-width="2" stroke-opacity="null" fill-opacity="null" d="m1081.532429,872.010898l38.57143,-90.49656l38.57142,90.49656l-19.28571,0l0,90.93202l-38.57142,0l0,-90.93202l-19.28572,0z" id="svg_26" stroke="#000" opacity="0.36" transform="rotate(180 1120.10400390625,872.2284545898439) "/>
  <rect stroke="#000" fill="none" stroke-width="2" stroke-opacity="null" fill-opacity="null" x="1100.714221" y="573.244249" width="38.57142" height="208.831573" id="svg_27" opacity="0.38"/>
  <text fill="#000000" stroke="#000" stroke-width="0" stroke-opacity="null" fill-opacity="null" x="1174.999927" y="931.426404" id="svg_28" font-size="24" font-family="Helvetica, Arial, sans-serif" text-anchor="start" xml:space="preserve">http 200 index.html?=subpage1</text>
  <rect fill="none" stroke="#000" stroke-width="7" stroke-opacity="null" fill-opacity="null" x="1009.28567" y="972.075798" width="229.99995" height="107.142834" id="svg_29"/>
  <ellipse fill="none" stroke="#000" stroke-width="4" stroke-opacity="null" fill-opacity="null" cx="1123.571359" cy="1114.218624" id="svg_30" rx="54.285702" ry="6.42857"/>
  <line fill="none" stroke="#000" stroke-width="12" stroke-opacity="null" fill-opacity="null" x1="1122.142788" y1="1077.790061" x2="1123.571359" y2="1107.790054" id="svg_31" stroke-linejoin="null" stroke-linecap="null"/>
  <text style="cursor: move;" fill="#000000" stroke="#000" stroke-opacity="null" fill-opacity="null" x="1090.194763" y="1012.075789" id="svg_32" font-size="24" font-family="Helvetica, Arial, sans-serif" text-anchor="start" xml:space="preserve">Admin</text>
  <text style="cursor: move;" fill="#000000" stroke="#000" stroke-width="0" stroke-opacity="null" fill-opacity="null" x="1174.999927" y="897.400449" id="svg_35" font-size="24" font-family="Helvetica, Arial, sans-serif" text-anchor="start" xml:space="preserve">GET example.com/subpage1</text>
  <text fill="#000000" stroke-width="0" stroke-opacity="null" fill-opacity="null" x="814.091115" y="369.627894" id="svg_10" font-size="20" font-family="Helvetica, Arial, sans-serif" text-anchor="start" xml:space="preserve" transform="matrix(1,0,0,1.0624512434005737,0,-16.098759587854147) " stroke="#000">return TemplateResponse(request, self.index_template or 'admin/index.html', context)</text>
  <text fill="#000000" stroke-width="0" stroke-opacity="null" fill-opacity="null" x="814.091115" y="412.410501" id="svg_11" font-size="20" font-family="Helvetica, Arial, sans-serif" text-anchor="start" xml:space="preserve" transform="matrix(1,0,0,1.0624512434005737,0,-16.098759587854147) " stroke="#000">for /subpage1 it matches path('&lt;path:path&gt;', api_views.index, name='home')</text>
  <text fill="#000000" stroke-width="0" stroke-opacity="null" fill-opacity="null" x="814.091115" y="444.925284" id="svg_34" font-size="20" font-family="Helvetica, Arial, sans-serif" text-anchor="start" xml:space="preserve" transform="matrix(1,0,0,1.0624512434005737,0,-16.098759587854147) " stroke="#000">which means: "Map any url-pattern we did not match yet to 'home'"</text>
  <text fill="#000000" stroke-width="0" stroke-opacity="null" fill-opacity="null" x="814.091115" y="477.440066" id="svg_36" font-size="20" font-family="Helvetica, Arial, sans-serif" text-anchor="start" xml:space="preserve" transform="matrix(1,0,0,1.0624512434005737,0,-16.098759587854147) " stroke="#000">thus /subpage1 will also return index.html but the request will be passed</text>
  <text fill="#000000" stroke-width="0" stroke-opacity="null" fill-opacity="null" x="814.091115" y="509.954849" id="svg_37" font-size="20" font-family="Helvetica, Arial, sans-serif" text-anchor="start" xml:space="preserve" transform="matrix(1,0,0,1.0624512434005737,0,-16.098759587854147) " stroke="#000">to the client as is with /subpage1 remaining in the URL.</text>
  <text style="cursor: move;" fill="#000000" stroke="#000" stroke-width="0" stroke-opacity="null" fill-opacity="null" x="1174.999927" y="806.491578" id="svg_38" font-size="24" font-family="Helvetica, Arial, sans-serif" text-anchor="start" xml:space="preserve">GET example.com/admin/</text>
  <text fill="#000000" stroke="#000" stroke-width="0" stroke-opacity="null" fill-opacity="null" x="1174.999927" y="840.517533" id="svg_39" font-size="24" font-family="Helvetica, Arial, sans-serif" text-anchor="start" xml:space="preserve">http 200 admin-sites/index.html</text>
 </g>
</svg>